"../../../Engine/Content/Animation/DefaultAnimCurveCompressionSettings.uasset" 0
"../../../Engine/Content/ArtTools/RenderToTexture/Enums/RenderToTexture_Enum.uasset" 1
"../../../Engine/Content/ArtTools/RenderToTexture/Enums/RenderToTexture_Flipbook_Enum.uasset" 2
"../../../Engine/Content/ArtTools/RenderToTexture/Enums/RenderToTexture_Imposter_Enum.uasset" 3
"../../../Engine/Content/EditorBlueprintResources/StandardMacros.uasset" 4
"../../../Engine/Content/ArtTools/RenderToTexture/Enums/EIntTypes.uasset" 5
"../../../Engine/Content/ArtTools/RenderToTexture/Macros/RenderToTextureFunctionLibrary.uasset" 6
"../../../Engine/Content/ArtTools/RenderToTexture/Enums/EFloatTypes.uasset" 7
"../../../Engine/Content/ArtTools/RenderToTexture/Macros/RenderToTextureMacros.uasset" 8
"../../../Engine/Content/Functions/Engine_MaterialFunctions01/Opacity/CameraDepthFade.uasset" 9
"../../../Engine/Content/EngineMaterials/T_Default_Material_Grid_M.uasset" 10
"../../../Engine/Content/EngineMaterials/T_Default_Material_Grid_N.uasset" 11
"../../../Engine/Content/EngineMaterials/WorldGridMaterial.uasset" 12
"../../../Engine/Content/ArtTools/RenderToTexture/Meshes/S_1_Unit_Plane.uasset" 13
"../../../Engine/Content/EngineMaterials/DefaultMaterial.uasset" 14
"../../../Engine/Content/BasicShapes/Cone.uasset" 15
"../../../Engine/Content/BasicShapes/Cube.uasset" 16
"../../../Engine/Content/BasicShapes/Cylinder.uasset" 17
"../../../Engine/Content/BasicShapes/Plane.uasset" 18
"../../../Engine/Content/BasicShapes/Sphere.uasset" 19
"../../../Engine/Content/EngineMaterials/DefaultPhysicalMaterial.uasset" 20
"../../../Engine/Content/BufferVisualization/AmbientOcclusion.uasset" 21
"../../../Engine/Content/BufferVisualization/BaseColor.uasset" 22
"../../../Engine/Content/BufferVisualization/CustomDepth.uasset" 23
"../../../Engine/Content/Functions/Engine_MaterialFunctions02/Utility/VectorLength.uasset" 24
"../../../Engine/Content/BufferVisualization/CustomDepthWorldUnits.uasset" 25
"../../../Engine/Content/Functions/Engine_MaterialFunctions02/Utility/BreakOutFloat2Components.uasset" 26
"../../../Engine/Content/Functions/Engine_MaterialFunctions01/Texturing/ScaleUVsByCenter.uasset" 27
"../../../Engine/Content/Functions/Engine_MaterialFunctions02/ScreenResolution.uasset" 28
"../../../Engine/Content/Functions/Engine_MaterialFunctions02/Texturing/ScreenAlignedUVs.uasset" 29
"../../../Engine/Content/Functions/Engine_MaterialFunctions02/Utility/MakeFloat2.uasset" 30
"../../../Engine/Content/Functions/Engine_MaterialFunctions02/Utility/MakeFloat3.uasset" 31
"../../../Engine/Content/EngineMaterials/MiniFont.uasset" 32
"../../../Engine/Content/BufferVisualization/CustomStencil.uasset" 33
"../../../Engine/Content/BufferVisualization/FinalImage.uasset" 34
"../../../Engine/Content/BufferVisualization/LightingModel.uasset" 35
"../../../Engine/Content/BufferVisualization/MaterialAO.uasset" 36
"../../../Engine/Content/BufferVisualization/Metallic.uasset" 37
"../../../Engine/Content/BufferVisualization/Opacity.uasset" 38
"../../../Engine/Content/BufferVisualization/PostTonemapHDRColor.uasset" 39
"../../../Engine/Content/BufferVisualization/PreTonemapHDRColor.uasset" 40
"../../../Engine/Content/BufferVisualization/Roughness.uasset" 41
"../../../Engine/Content/BufferVisualization/SceneColor.uasset" 42
"../../../Engine/Content/BufferVisualization/SceneDepth.uasset" 43
"../../../Engine/Content/BufferVisualization/SceneDepthWorldUnits.uasset" 44
"../../../Engine/Content/BufferVisualization/SeparateTranslucencyA.uasset" 45
"../../../Engine/Content/BufferVisualization/SeparateTranslucencyRGB.uasset" 46
"../../../Engine/Content/BufferVisualization/Specular.uasset" 47
"../../../Engine/Content/BufferVisualization/SubsurfaceColor.uasset" 48
"../../../Engine/Content/BufferVisualization/Velocity.uasset" 49
"../../../Engine/Content/BufferVisualization/WorldNormal.uasset" 50
"../../../Engine/Content/EditorBlueprintResources/ActorMacros.uasset" 51
"../../../Engine/Content/EditorLandscapeResources/DataLayer.uasset" 52
"../../../Engine/Content/EditorLandscapeResources/DefaultAlphaTexture.uasset" 53
"../../../Engine/Content/EditorLandscapeResources/LandscapeGizmoHeight_Mat.uasset" 54
"../../../Engine/Content/EditorLandscapeResources/LandscapeGizmo_Mat.uasset" 55
"../../../Engine/Content/EditorLandscapeResources/LandscapeGizmo_Mat_Copied.uasset" 56
"../../../Engine/Content/EditorLandscapeResources/SplineEditorMeshMat.uasset" 57
"../../../Engine/Content/EditorLandscapeResources/SplineEditorMesh.uasset" 58
"../../../Engine/Content/EditorMaterials/Cross.uasset" 59
"../../../Engine/Content/EditorMaterials/Cross_Mat.uasset" 60
"../../../Engine/Content/EditorMaterials/GizmoMaterial.uasset" 61
"../../../Engine/Content/Functions/Engine_MaterialFunctions02/ExampleContent/Textures/flipbook.uasset" 62
"../../../Engine/Content/Functions/Engine_MaterialFunctions02/Texturing/FlipBook.uasset" 63
"../../../Engine/Content/Functions/Engine_MaterialFunctions02/Utility/Sign.uasset" 64
"../../../Engine/Content/Functions/Engine_MaterialFunctions02/Utility/Round.uasset" 65
"../../../Engine/Content/EditorResources/T_EditorHelp.uasset" 66
"../../../Engine/Content/EditorMaterials/HelpActorMaterial.uasset" 67
"../../../Engine/Content/EditorMaterials/CompositeARGBLayer.uasset" 68
"../../../Engine/Content/EditorMaterials/TilingAALineIntegral.uasset" 69
"../../../Engine/Content/EditorMaterials/TilingAALineBoxFiltered.uasset" 70
"../../../Engine/Content/Functions/Engine_MaterialFunctions03/Procedurals/ComputeFilterWidth.uasset" 71
"../../../Engine/Content/EditorMaterials/TilingAADots.uasset" 72
"../../../Engine/Content/EngineMaterials/BlendFunc_DefBase.uasset" 73
"../../../Engine/Content/EngineMaterials/BlendFunc_DefBlend.uasset" 74
"../../../Engine/Content/Functions/Engine_MaterialFunctions03/Blends/Blend_Screen.uasset" 75
"../../../Engine/Content/EditorMaterials/TilingAAGrid.uasset" 76
"../../../Engine/Content/EditorMaterials/LevelGridMaterial.uasset" 77
"../../../Engine/Content/EditorMaterials/MakeCompositeARGBLayer.uasset" 78
"../../../Engine/Content/EditorResources/LevelGrid1DStripes.uasset" 79
"../../../Engine/Content/EditorMaterials/TextureGridCascaded1D.uasset" 80
"../../../Engine/Content/EditorMaterials/TextureGridCascaded2D.uasset" 81
"../../../Engine/Content/EditorMaterials/LevelGridMaterial2.uasset" 82
"../../../Engine/Content/EditorMaterials/MAT_Groups_Toggle.uasset" 83
"../../../Engine/Content/EditorMaterials/MAT_Groups_Visibility.uasset" 84
"../../../Engine/Content/EditorMaterials/AntialiasedGridFloor.uasset" 85
"../../../Engine/Content/EditorResources/TilePatine_D.uasset" 86
"../../../Engine/Content/EditorResources/TilePatine_N.uasset" 87
"../../../Engine/Content/EngineMaterials/Grid.uasset" 88
"../../../Engine/Content/EditorMaterials/PersonaFloorMat.uasset" 89
"../../../Engine/Content/EditorMaterials/PhAT_BoneSelectedMaterial.uasset" 90
"../../../Engine/Content/EditorMaterials/PhAT_ElemSelectedMaterial.uasset" 91
"../../../Engine/Content/EditorMaterials/PhAT_NoCollisionMaterial.uasset" 92
"../../../Engine/Content/EditorMaterials/PhAT_UnselectedMaterial.uasset" 93
"../../../Engine/Content/EditorMaterials/PreviewShadowIndicator.uasset" 94
"../../../Engine/Content/EditorMaterials/PreviewShadowIndicatorMaterial.uasset" 95
"../../../Engine/Content/EditorMaterials/TargetIcon.uasset" 96
"../../../Engine/Content/EditorMaterials/Tick.uasset" 97
"../../../Engine/Content/EditorMaterials/Tick_Mat.uasset" 98
"../../../Engine/Content/EditorMaterials/WidgetGridVertexColorMaterial.uasset" 99
"../../../Engine/Content/EditorMaterials/WidgetGridVertexColorMaterial_Ma.uasset" 100
"../../../Engine/Content/EditorMaterials/WidgetMaterial.uasset" 101
"../../../Engine/Content/EditorMaterials/WidgetMaterial_Current.uasset" 102
"../../../Engine/Content/EditorMaterials/WidgetMaterial_X.uasset" 103
"../../../Engine/Content/EditorMaterials/WidgetMaterial_Y.uasset" 104
"../../../Engine/Content/EditorMaterials/WidgetMaterial_Z.uasset" 105
"../../../Engine/Content/EditorMaterials/WidgetVertexColorMaterial.uasset" 106
"../../../Engine/Content/EditorMaterials/AssetViewer/EpicQuadPanorama_CC+EV1.uasset" 107
"../../../Engine/Content/MapTemplates/Sky/SunsetAmbientCubemap.uasset" 108
"../../../Engine/Content/EditorMaterials/AssetViewer/M_SkyBox.uasset" 109
"../../../Engine/Content/EditorMaterials/MatineeGroups/MAT_ColorTrack.uasset" 110
"../../../Engine/Content/EditorMaterials/MatineeGroups/MAT_Groups_Anim.uasset" 111
"../../../Engine/Content/EditorMaterials/MatineeGroups/MAT_Groups_AudioMaster.uasset" 112
"../../../Engine/Content/EditorMaterials/MatineeGroups/MAT_Groups_Director.uasset" 113
"../../../Engine/Content/EditorMaterials/MatineeGroups/MAT_Groups_Event.uasset" 114
"../../../Engine/Content/EditorMaterials/MatineeGroups/MAT_Groups_Fade.uasset" 115
"../../../Engine/Content/EditorMaterials/MatineeGroups/MAT_Groups_Float.uasset" 116
"../../../Engine/Content/EditorMaterials/MatineeGroups/MAT_Groups_Move.uasset" 117
"../../../Engine/Content/EditorMaterials/MatineeGroups/MAT_Groups_Slomo.uasset" 118
"../../../Engine/Content/EditorMaterials/MatineeGroups/MAT_Groups_Sound.uasset" 119
"../../../Engine/Content/EditorMaterials/MatineeGroups/MAT_Groups_Vector.uasset" 120
"../../../Engine/Content/EditorMaterials/ParticleSystems/PSysThumbnail_NoImage.uasset" 121
"../../../Engine/Content/EditorMaterials/ParticleSystems/PSysThumbnail_OOD.uasset" 122
"../../../Engine/Content/EditorMaterials/Thumbnails/FloorPlaneMaterial.uasset" 123
"../../../Engine/Content/EditorMeshes/EditorCube.uasset" 124
"../../../Engine/Content/EditorMeshes/EditorCylinder.uasset" 125
"../../../Engine/Content/EditorMeshes/EditorPlane.uasset" 126
"../../../Engine/Content/EditorMaterials/Thumbnails/SkySphereMaterial.uasset" 127
"../../../Engine/Content/EditorMeshes/EditorSkySphere.uasset" 128
"../../../Engine/Content/EditorMeshes/EditorSphere.uasset" 129
"../../../Engine/Content/EditorResources/MatineeCam_D.uasset" 130
"../../../Engine/Content/EditorMaterials/MatineeCam_mat.uasset" 131
"../../../Engine/Content/EditorMeshes/MatineeCam_SM.uasset" 132
"../../../Engine/Content/Functions/Engine_MaterialFunctions01/Shading/ConvertFromDiffSpec.uasset" 133
"../../../Engine/Content/EditorMaterials/GridMaterial.uasset" 134
"../../../Engine/Content/EditorMeshes/PhAT_FloorBox.uasset" 135
"../../../Engine/Content/EditorMeshes/PlanarReflectionPlane.uasset" 136
"../../../Engine/Content/EditorMeshes/AssetViewer/Floor_Mesh.uasset" 137
"../../../Engine/Content/EditorMeshes/AssetViewer/Sphere_inversenormals.uasset" 138
"../../../Engine/Content/EditorMaterials/Camera/CineMat.uasset" 139
"../../../Engine/Content/EditorMaterials/Camera/MI_CineMat_CameraBody.uasset" 140
"../../../Engine/Content/EngineDebugMaterials/M_SimpleOpaque.uasset" 141
"../../../Engine/Content/EditorMaterials/Camera/MI_CineMat_CamViewFinder.uasset" 142
"../../../Engine/Content/EditorMeshes/Camera/SM_CineCam.uasset" 143
"../../../Engine/Content/EditorMaterials/Camera/MI_CineMat_Rig.uasset" 144
"../../../Engine/Content/EditorMeshes/Camera/SM_CraneRig_Arm.uasset" 145
"../../../Engine/Content/EditorMeshes/Camera/SM_CraneRig_Base.uasset" 146
"../../../Engine/Content/EditorMeshes/Camera/SM_CraneRig_Body.uasset" 147
"../../../Engine/Content/EditorMeshes/Camera/SM_CraneRig_Mount.uasset" 148
"../../../Engine/Content/EditorMeshes/Camera/SM_RailRig_Mount.uasset" 149
"../../../Engine/Content/EditorMeshes/Camera/SM_RailRig_Track.uasset" 150
"../../../Engine/Content/EditorMeshes/ColorCalibrator/M_ChromeBall.uasset" 151
"../../../Engine/Content/EditorResources/Bad.uasset" 152
"../../../Engine/Content/EditorResources/BadBlueprintSprite.uasset" 153
"../../../Engine/Content/EditorResources/BSPVertex.uasset" 154
"../../../Engine/Content/EditorResources/EmptyActor.uasset" 155
"../../../Engine/Content/EditorResources/MatInstActSprite.uasset" 156
"../../../Engine/Content/EditorResources/SceneManager.uasset" 157
"../../../Engine/Content/EditorResources/SmallFont.uasset" 158
"../../../Engine/Content/EditorResources/S_Actor.uasset" 159
"../../../Engine/Content/EditorResources/S_DecalActorIcon.uasset" 160
"../../../Engine/Content/EditorResources/S_Emitter.uasset" 161
"../../../Engine/Content/EditorResources/S_ExpoHeightFog.uasset" 162
"../../../Engine/Content/EditorResources/S_FTest.uasset" 163
"../../../Engine/Content/EditorResources/S_KBSJoint.uasset" 164
"../../../Engine/Content/EditorResources/S_KHinge.uasset" 165
"../../../Engine/Content/EditorResources/S_KPrismatic.uasset" 166
"../../../Engine/Content/EditorResources/S_LevelSequence.uasset" 167
"../../../Engine/Content/EditorResources/S_NavP.uasset" 168
"../../../Engine/Content/EditorResources/S_Note.uasset" 169
"../../../Engine/Content/EditorResources/S_Player.uasset" 170
"../../../Engine/Content/EditorResources/S_PortalActorIcon2.uasset" 171
"../../../Engine/Content/EditorResources/S_RadForce.uasset" 172
"../../../Engine/Content/EditorResources/S_ReflActorIcon.uasset" 173
"../../../Engine/Content/EditorResources/S_Terrain.uasset" 174
"../../../Engine/Content/EditorResources/S_TextRenderActorIcon.uasset" 175
"../../../Engine/Content/EditorResources/S_Thruster.uasset" 176
"../../../Engine/Content/EditorResources/S_Trigger.uasset" 177
"../../../Engine/Content/EditorResources/S_VectorFieldVol.uasset" 178
"../../../Engine/Content/EditorResources/S_WindDirectional.uasset" 179
"../../../Engine/Content/EditorResources/AI/S_NavLink.uasset" 180
"../../../Engine/Content/EditorResources/LightIcons/SkyLight.uasset" 181
"../../../Engine/Content/EditorResources/LightIcons/S_LightDirectional.uasset" 182
"../../../Engine/Content/EditorResources/LightIcons/S_LightDirectionalMove.uasset" 183
"../../../Engine/Content/EditorResources/LightIcons/S_LightError.uasset" 184
"../../../Engine/Content/EditorResources/LightIcons/S_LightPoint.uasset" 185
"../../../Engine/Content/EditorResources/LightIcons/S_LightPointMove.uasset" 186
"../../../Engine/Content/EditorResources/LightIcons/S_LightSpot.uasset" 187
"../../../Engine/Content/EditorResources/LightIcons/S_LightSpotMove.uasset" 188
"../../../Engine/Content/EditorResources/SequenceRecorder/Countdown.uasset" 189
"../../../Engine/Content/EditorResources/SequenceRecorder/RecordingIndicator.uasset" 190
"../../../Engine/Content/EditorResources/Spline/T_Loft_Spline.uasset" 191
"../../../Engine/Content/EditorSounds/Notifications/CompileFailed.uasset" 192
"../../../Engine/Content/EditorSounds/Notifications/CompileFailed_Cue.uasset" 193
"../../../Engine/Content/EditorSounds/Notifications/CompileSuccess.uasset" 194
"../../../Engine/Content/EditorSounds/Notifications/CompileStart_Cue.uasset" 195
"../../../Engine/Content/EditorSounds/Notifications/CompileSuccess_Cue.uasset" 196
"../../../Engine/Content/EngineDamageTypes/DmgTypeBP_Environmental.uasset" 197
"../../../Engine/Content/EngineDebugMaterials/HeatmapGradient.uasset" 198
"../../../Engine/Content/EngineDebugMaterials/BoneWeightMaterial.uasset" 199
"../../../Engine/Content/EngineDebugMaterials/ClothMaterial.uasset" 200
"../../../Engine/Content/EngineDebugMaterials/ClothMaterial_WF.uasset" 201
"../../../Engine/Content/EngineDebugMaterials/DebugEditorMaterial.uasset" 202
"../../../Engine/Content/EngineDebugMaterials/DebugMeshMaterial.uasset" 203
"../../../Engine/Content/EngineDebugMaterials/GeomMaterial.uasset" 204
"../../../Engine/Content/EngineDebugMaterials/LevelColorationLitMaterial.uasset" 205
"../../../Engine/Content/EngineDebugMaterials/LevelColorationUnlitMaterial.uasset" 206
"../../../Engine/Content/EngineMaterials/DefaultWhiteGrid.uasset" 207
"../../../Engine/Content/EngineDebugMaterials/MAT_LevelColorationLitLightmapUV.uasset" 208
"../../../Engine/Content/EngineDebugMaterials/M_SimpleTranslucent.uasset" 209
"../../../Engine/Content/EngineDebugMaterials/ShadedLevelColorationLitMaterial.uasset" 210
"../../../Engine/Content/EngineDebugMaterials/ShadedLevelColorationUnlitMateri.uasset" 211
"../../../Engine/Content/EngineDebugMaterials/VertexColorMaterial.uasset" 212
"../../../Engine/Content/EngineDebugMaterials/VertexColorViewMode_AlphaAsColor.uasset" 213
"../../../Engine/Content/EngineDebugMaterials/VertexColorViewMode_BlueOnly.uasset" 214
"../../../Engine/Content/EngineDebugMaterials/VertexColorViewMode_ColorOnly.uasset" 215
"../../../Engine/Content/EngineDebugMaterials/VertexColorViewMode_GreenOnly.uasset" 216
"../../../Engine/Content/EngineDebugMaterials/VertexColorViewMode_RedOnly.uasset" 217
"../../../Engine/Content/EngineDebugMaterials/WireframeMaterial.uasset" 218
"../../../Engine/Content/EngineFonts/Faces/RobotoBold.uasset" 219
"../../../Engine/Content/EngineFonts/Faces/RobotoBoldItalic.uasset" 220
"../../../Engine/Content/EngineFonts/Faces/RobotoItalic.uasset" 221
"../../../Engine/Content/EngineFonts/Faces/RobotoLight.uasset" 222
"../../../Engine/Content/EngineFonts/Faces/RobotoRegular.uasset" 223
"../../../Engine/Content/EngineFonts/Roboto.uasset" 224
"../../../Engine/Content/EngineFonts/Faces/RobotoTiny.uasset" 225
"../../../Engine/Content/EngineFonts/RobotoTiny.uasset" 226
"../../../Engine/Content/EngineFonts/SmallFont.uasset" 227
"../../../Engine/Content/EngineFonts/TinyFont.uasset" 228
"../../../Engine/Content/EngineMaterials/BaseFlattenDiffuseMap.uasset" 229
"../../../Engine/Content/EngineMaterials/BaseFlattenEmissiveMap.uasset" 230
"../../../Engine/Content/EngineMaterials/BaseFlattenGrayscaleMap.uasset" 231
"../../../Engine/Content/EngineMaterials/BaseFlattenNormalMap.uasset" 232
"../../../Engine/Content/EngineMaterials/BaseFlattenMaterial.uasset" 233
"../../../Engine/Content/EngineResources/WhiteSquareTexture.uasset" 234
"../../../Engine/Content/EngineMaterials/BlinkingCaret.uasset" 235
"../../../Engine/Content/EngineMaterials/DefaultBloomKernel.uasset" 236
"../../../Engine/Content/EngineMaterials/DefaultBokeh.uasset" 237
"../../../Engine/Content/EngineMaterials/DefaultDiffuse.uasset" 238
"../../../Engine/Content/EngineMaterials/DefaultDeferredDecalMaterial.uasset" 239
"../../../Engine/Content/EngineMaterials/DefaultLightFunctionMaterial.uasset" 240
"../../../Engine/Content/EngineMaterials/DefaultNormal.uasset" 241
"../../../Engine/Content/EngineMaterials/DefaultPostProcessMaterial.uasset" 242
"../../../Engine/Content/EngineFonts/RobotoDistanceField.uasset" 243
"../../../Engine/Content/EngineMaterials/DefaultTextMaterialOpaque.uasset" 244
"../../../Engine/Content/EngineMaterials/EditorBrushMaterial.uasset" 245
"../../../Engine/Content/EngineMaterials/Good64x64TilingNoiseHighFreq.uasset" 246
"../../../Engine/Content/EngineMaterials/Grid_N.uasset" 247
"../../../Engine/Content/EngineMaterials/HighResolutionScreenshotMaskFunction.uasset" 248
"../../../Engine/Content/EngineMaterials/HighResScreenshot.uasset" 249
"../../../Engine/Content/EngineMaterials/HighResScreenshotCaptureRegion.uasset" 250
"../../../Engine/Content/EngineMaterials/HighResScreenshotMask.uasset" 251
"../../../Engine/Content/EngineMaterials/LandscapeHolePhysicalMaterial.uasset" 252
"../../../Engine/Content/EngineMaterials/InvalidLightmapSettings.uasset" 253
"../../../Engine/Content/EngineMaterials/M_InvalidLightmapSettings.uasset" 254
"../../../Engine/Content/EngineMaterials/PaperDiffuse.uasset" 255
"../../../Engine/Content/EngineMaterials/PaperNormal.uasset" 256
"../../../Engine/Content/Functions/Engine_MaterialFunctions02/WorldPositionOffset/CameraOffset.uasset" 257
"../../../Engine/Content/EngineMaterials/PhAT_JointLimitMaterial.uasset" 258
"../../../Engine/Content/EngineMaterials/PhysMat_Rubber.uasset" 259
"../../../Engine/Content/EngineMaterials/PreintegratedSkinBRDF.uasset" 260
"../../../Engine/Content/EngineMaterials/RemoveSurfaceMaterial.uasset" 261
"../../../Engine/Content/EngineMaterials/WeightMapPlaceholderTexture.uasset" 262
"../../../Engine/Content/EngineMaterials/Widget3DPassThrough.uasset" 263
"../../../Engine/Content/EngineMaterials/Widget3DPassThrough_Masked.uasset" 264
"../../../Engine/Content/EngineMaterials/Widget3DPassThrough_Opaque.uasset" 265
"../../../Engine/Content/EngineMaterials/Widget3DPassThrough_Masked_OneSided.uasset" 266
"../../../Engine/Content/EngineMaterials/Widget3DPassThrough_Opaque_OneSided.uasset" 267
"../../../Engine/Content/EngineMaterials/Widget3DPassThrough_Translucent.uasset" 268
"../../../Engine/Content/EngineMaterials/Widget3DPassThrough_Translucent_OneSided.uasset" 269
"../../../Engine/Content/EngineMeshes/Cylinder.uasset" 270
"../../../Engine/Content/EngineMeshes/Sphere.uasset" 271
"../../../Engine/Content/EngineResources/Black.uasset" 272
"../../../Engine/Content/EngineResources/DefaultTexture.uasset" 273
"../../../Engine/Content/EngineResources/DefaultTextureCube.uasset" 274
"../../../Engine/Content/EngineResources/DefaultVolumeTexture2D.uasset" 275
"../../../Engine/Content/EngineResources/DefaultVolumeTexture.uasset" 276
"../../../Engine/Content/EngineResources/GradientTexture0.uasset" 277
"../../../Engine/Content/EngineResources/StreamingPauseIcon.uasset" 278
"../../../Engine/Content/EngineResources/M_StreamingPause.uasset" 279
"../../../Engine/Content/EngineSounds/Master.uasset" 280
"../../../Engine/Content/Functions/Engine_MaterialFunctions01/Shading/PowerToRoughness.uasset" 281
"../../../Engine/Content/Maps/Templates/Thumbnails/Default.uasset" 282
"../../../Engine/Content/Maps/Templates/Thumbnails/VR-Basic.uasset" 283
"../../../Engine/Content/MobileResources/T_MobileControls_texture.uasset" 284
"../../../Engine/Content/MobileResources/T_MobileMenu2.uasset" 285
"../../../Engine/Content/MobileResources/HUD/AnalogHat.uasset" 286
"../../../Engine/Content/MobileResources/HUD/VirtualJoystick_Background.uasset" 287
"../../../Engine/Content/MobileResources/HUD/VirtualJoystick_Thumb.uasset" 288
"../../../Engine/Content/MobileResources/HUD/DefaultVirtualJoysticks.uasset" 289
"../../../Engine/Content/MobileResources/HUD/LeftVirtualJoystickOnly.uasset" 290
"../../../Engine/Content/MobileResources/HUD/MobileHUDButton1_off.uasset" 291
"../../../Engine/Content/MobileResources/HUD/MobileHUDButton1_on.uasset" 292
"../../../Engine/Content/MobileResources/HUD/MobileHUDButton2_off.uasset" 293
"../../../Engine/Content/MobileResources/HUD/MobileHUDButton2_on.uasset" 294
"../../../Engine/Content/MobileResources/HUD/MobileHUDButton3.uasset" 295
"../../../Engine/Content/MobileResources/HUD/MobileHUDButtonFire.uasset" 296
"../../../Engine/Content/MobileResources/HUD/MobileHUDDirectionPad.uasset" 297
"../../../Engine/Content/MobileResources/HUD/MobileHUDDirectionPad2.uasset" 298
"../../../Engine/Content/MobileResources/HUD/MobileHUDDirectionPad3.uasset" 299
"../../../Engine/Content/MobileResources/HUD/MobileHUDDirectionStick.uasset" 300
"../../../Engine/Content/MobileResources/HUD/T_Castle_ThumbstickInner.uasset" 301
"../../../Engine/Content/MobileResources/HUD/T_Castle_ThumbstickOutter.uasset" 302
"../../../Engine/Content/Tutorial/ContentIntroCurve.uasset" 303
"../../../Engine/Content/Tutorial/Basics/LevelEditorAttract.uasset" 304
"../../../Engine/Content/Tutorial/Basics/TutorialAssets/icon_tab_Levels_40x.uasset" 305
"../../../Engine/Content/Tutorial/Basics/LevelEditorOverview.uasset" 306
"../../../Engine/Content/Tutorial/BlueprintTutorials/TutorialAssets/Blueprint_64x.uasset" 307
"../../../Engine/Content/Tutorial/BlueprintTutorials/BlueprintEditorTutorial.uasset" 308
"../../../Engine/Content/Tutorial/BlueprintTutorials/TutorialAssets/Tutorial_BP_MacroLib.uasset" 309
"../../../Engine/Content/Tutorial/Installation/InstallingVisualStudioTutorial.uasset" 310
"../../../Engine/Content/Tutorial/SubEditors/MaterialEditorTutorial.uasset" 311
"../../../Engine/Content/Tutorial/SubEditors/TutorialAssets/TutorialMaterial.uasset" 312
"../../../Engine/Content/VREditor/LaserPointer/VR_LaserPower_01.uasset" 313
"../../../Engine/Content/VREditor/TransformGizmo/TransformGizmoMaterial.uasset" 314
"../../../Engine/Content/VREditor/TransformGizmo/TranslucentTransformGizmoMaterial.uasset" 315
"../../../Engine/Content/VREditor/TransformGizmo/BoundingBoxCorner.uasset" 316
"../../../Engine/Content/VREditor/TransformGizmo/BoundingBoxEdge.uasset" 317
"../../../Engine/Content/VREditor/TransformGizmo/PlaneTranslationHandle.uasset" 318
"../../../Engine/Content/VREditor/TransformGizmo/Main.uasset" 319
"../../../Engine/Content/VREditor/TransformGizmo/Xray.uasset" 320
"../../../Engine/Content/VREditor/TransformGizmo/SM_Sequencer_Key.uasset" 321
"../../../Engine/Content/VREditor/TransformGizmo/SM_Sequencer_Node.uasset" 322
"../../../../../../Users/12083/Documents/Unreal Projects/midterm/Content/Platformer/Textures/Pl_plastic_n.uasset" 323
"../../../../../../Users/12083/Documents/Unreal Projects/midterm/Content/Platformer/Textures/Pl_plastic_r.uasset" 324
"../../../../../../Users/12083/Documents/Unreal Projects/midterm/Content/Platformer/Materials/M_Metal_Black_Parent.uasset" 325
"../../../../../../Users/12083/Documents/Unreal Projects/midterm/Content/Platformer/Materials/M_Metal_Gold_Instance.uasset" 326
"../../../../../../Users/12083/Documents/Unreal Projects/midterm/Content/Platformer/Meshes/Pl_Coin_01.uasset" 327
"../../../../../../Users/12083/Documents/Unreal Projects/midterm/Content/StarterContent/Textures/T_MacroVariation.uasset" 328
"../../../../../../Users/12083/Documents/Unreal Projects/midterm/Content/StarterContent/Textures/T_Metal_Gold_D.uasset" 329
"../../../../../../Users/12083/Documents/Unreal Projects/midterm/Content/StarterContent/Textures/T_Metal_Gold_N.uasset" 330
"../../../../../../Users/12083/Documents/Unreal Projects/midterm/Content/StarterContent/Materials/M_Metal_Gold.uasset" 331
"../../../../../../Users/12083/Documents/Unreal Projects/midterm/Content/ModularRPGHeroesPolyart/Meshes/UE4_Mannequin_Skeleton.uasset" 332
"../../../../../../Users/12083/Documents/Unreal Projects/midterm/Content/ThirdPersonBP/Blueprints/ModularCharacter__Animation_BP.uasset" 333
"../../../../../../Users/12083/Documents/Unreal Projects/midterm/Content/ModularRPGHeroesPolyart/Animations/NoWeaponStance/Idle_noWeaponAnim.uasset" 334
"../../../../../../Users/12083/Documents/Unreal Projects/midterm/Content/ModularRPGHeroesPolyart/Textures/PolyArtTex.uasset" 335
"../../../../../../Users/12083/Documents/Unreal Projects/midterm/Content/ModularRPGHeroesPolyart/Materials/PolyartMat.uasset" 336
"../../../../../../Users/12083/Documents/Unreal Projects/midterm/Content/ModularRPGHeroesPolyart/Meshes/RPGHeroes_PhysicsAsset.uasset" 337
"../../../../../../Users/12083/Documents/Unreal Projects/midterm/Content/ModularRPGHeroesPolyart/Meshes/OneMeshCharacters/IronMaskSK.uasset" 338
"../../../../../../Users/12083/Documents/Unreal Projects/midterm/Content/ThirdPersonBP/Blueprints/IronMaskSK_Blueprint.uasset" 339
"../../../../../../Users/12083/Documents/Unreal Projects/midterm/Content/Mannequin/Character/Mesh/UE4_Mannequin_Skeleton.uasset" 340
"../../../../../../Users/12083/Documents/Unreal Projects/midterm/Content/Mannequin/Animations/ThirdPerson_Jump.uasset" 341
"../../../../../../Users/12083/Documents/Unreal Projects/midterm/Content/Mannequin/Animations/ThirdPersonJump_Loop.uasset" 342
"../../../../../../Users/12083/Documents/Unreal Projects/midterm/Content/Mannequin/Animations/ThirdPersonJump_Start.uasset" 343
"../../../../../../Users/12083/Documents/Unreal Projects/midterm/Content/Mannequin/Animations/ThirdPersonIdle.uasset" 344
"../../../../../../Users/12083/Documents/Unreal Projects/midterm/Content/Mannequin/Animations/ThirdPersonRun.uasset" 345
"../../../../../../Users/12083/Documents/Unreal Projects/midterm/Content/Mannequin/Animations/ThirdPersonWalk.uasset" 346
"../../../../../../Users/12083/Documents/Unreal Projects/midterm/Content/Mannequin/Animations/ThirdPerson_IdleRun_2D.uasset" 347
"../../../../../../Users/12083/Documents/Unreal Projects/midterm/Content/Mannequin/Animations/ThirdPerson_AnimBP.uasset" 348
"../../../Engine/Content/Functions/Engine_MaterialFunctions02/Utility/BlendAngleCorrectedNormals.uasset" 349
"../../../Engine/Content/Functions/MaterialLayerFunctions/MatLayerBlend_NormalBlend.uasset" 350
"../../../Engine/Content/Functions/MaterialLayerFunctions/MatLayerBlend_Simple.uasset" 351
"../../../../../../Users/12083/Documents/Unreal Projects/midterm/Content/Mannequin/Character/Materials/MaterialLayers/T_ML_Rubber_Blue_01_D.uasset" 352
"../../../../../../Users/12083/Documents/Unreal Projects/midterm/Content/Mannequin/Character/Materials/MaterialLayers/T_ML_Rubber_Blue_01_N.uasset" 353
"../../../../../../Users/12083/Documents/Unreal Projects/midterm/Content/Mannequin/Character/Materials/MaterialLayers/ML_GlossyBlack_Latex_UE4.uasset" 354
"../../../../../../Users/12083/Documents/Unreal Projects/midterm/Content/Mannequin/Character/Materials/MaterialLayers/ML_Plastic_Shiny_Beige.uasset" 355
"../../../../../../Users/12083/Documents/Unreal Projects/midterm/Content/Mannequin/Character/Textures/UE4_LOGO_CARD.uasset" 356
"../../../../../../Users/12083/Documents/Unreal Projects/midterm/Content/Mannequin/Character/Materials/MaterialLayers/ML_Plastic_Shiny_Beige_LOGO.uasset" 357
"../../../../../../Users/12083/Documents/Unreal Projects/midterm/Content/Mannequin/Character/Materials/MaterialLayers/T_ML_Aluminum01.uasset" 358
"../../../../../../Users/12083/Documents/Unreal Projects/midterm/Content/Mannequin/Character/Materials/MaterialLayers/T_ML_Aluminum01_N.uasset" 359
"../../../../../../Users/12083/Documents/Unreal Projects/midterm/Content/Mannequin/Character/Materials/MaterialLayers/ML_SoftMetal_UE4.uasset" 360
"../../../../../../Users/12083/Documents/Unreal Projects/midterm/Content/Mannequin/Character/Textures/UE4_Mannequin__normals.uasset" 361
"../../../../../../Users/12083/Documents/Unreal Projects/midterm/Content/Mannequin/Character/Textures/UE4_Mannequin_MAT_MASKA.uasset" 362
"../../../../../../Users/12083/Documents/Unreal Projects/midterm/Content/Mannequin/Character/Materials/M_UE4Man_Body.uasset" 363
"../../../../../../Users/12083/Documents/Unreal Projects/midterm/Content/Mannequin/Character/Textures/UE4Man_Logo_N.uasset" 364
"../../../../../../Users/12083/Documents/Unreal Projects/midterm/Content/Mannequin/Character/Materials/M_UE4Man_ChestLogo.uasset" 365
"../../../../../../Users/12083/Documents/Unreal Projects/midterm/Content/Mannequin/Character/Mesh/SK_Mannequin_PhysicsAsset.uasset" 366
"../../../../../../Users/12083/Documents/Unreal Projects/midterm/Content/Mannequin/Character/Mesh/SK_Mannequin.uasset" 367
"../../../../../../Users/12083/Documents/Unreal Projects/midterm/Content/ThirdPersonBP/Blueprints/ThirdPersonCharacter.uasset" 368
"../../../../../../Users/12083/Documents/Unreal Projects/midterm/Content/ModularRPGHeroesPolyart/Animations/NoWeaponStance/JumpAir_noWeaponAnim.uasset" 369
"../../../../../../Users/12083/Documents/Unreal Projects/midterm/Content/ModularRPGHeroesPolyart/Animations/NoWeaponStance/JumpEnd_noWeaponAnim.uasset" 370
"../../../../../../Users/12083/Documents/Unreal Projects/midterm/Content/ModularRPGHeroesPolyart/Animations/NoWeaponStance/JumpStart_noWeaponAnim.uasset" 371
"../../../../../../Users/12083/Documents/Unreal Projects/midterm/Content/ModularRPGHeroesPolyart/Animations/NoWeaponStance/NormalRun_noWeaponAnim.uasset" 372
"../../../../../../Users/12083/Documents/Unreal Projects/midterm/Content/ModularRPGHeroesPolyart/Animations/NoWeaponStance/NormalWalk_noWeaponAnim.uasset" 373
"../../../../../../Users/12083/Documents/Unreal Projects/midterm/Content/ModularRPGHeroesPolyart/Animations/NoWeaponStance/Character_BS.uasset" 374
"../../../../../../Users/12083/Documents/Unreal Projects/midterm/Content/ModularRPGHeroesPolyart/Animations/NoWeaponStance/ModularCharacter__Animation_BP.uasset" 375
"../../../../../../Users/12083/Documents/Unreal Projects/midterm/Content/ModularRPGHeroesPolyart/Meshes/OneMeshCharacters/DarkKnightSK.uasset" 376
"../../../../../../Users/12083/Documents/Unreal Projects/midterm/Content/ThirdPersonBP/Blueprints/ThirdPersonDefault.uasset" 377
"../../../../../../Users/12083/Documents/Unreal Projects/midterm/Content/ThirdPersonBP/Blueprints/ThirdPersonGameMode.uasset" 378
"../../Plugins/2D/Paper2D/Content/PlaceholderTextures/DummySpriteTexture.uasset" 379
"../../Plugins/2D/Paper2D/Content/DummySprite.uasset" 380
"../../Plugins/2D/Paper2D/Content/DefaultPaperTerrainMaterial.uasset" 381
"../../Plugins/2D/Paper2D/Content/DefaultSpriteMaterial.uasset" 382
"../../Plugins/2D/Paper2D/Content/MaskedUnlitSpriteMaterial.uasset" 383
"../../Plugins/2D/Paper2D/Content/OpaqueUnlitSpriteMaterial.uasset" 384
"../../Plugins/Enterprise/DatasmithContent/Content/Blueprints/FBXImporter/ArrayOfActor.uasset" 385
"../../Plugins/Enterprise/DatasmithContent/Content/Blueprints/FBXImporter/ArrayOfSwitch.uasset" 386
"../../Plugins/Enterprise/DatasmithContent/Content/Blueprints/FBXImporter/BP_SceneNode.uasset" 387
"../../Plugins/Enterprise/DatasmithContent/Content/Blueprints/FBXImporter/BP_Switch.uasset" 388
"../../Plugins/Enterprise/DatasmithContent/Content/Blueprints/FBXImporter/BP_SceneRoot.uasset" 389
"../../Plugins/Enterprise/DatasmithContent/Content/Blueprints/FBXImporter/FBXImporterUtils.uasset" 390
"../../Plugins/Enterprise/DatasmithContent/Content/Blueprints/FBXImporter/Animation/DeltaGenAnimationTrackType.uasset" 391
"../../Plugins/Enterprise/DatasmithContent/Content/Blueprints/FBXImporter/Animation/VREDAnimationTrackComponent.uasset" 392
"../../Plugins/Enterprise/DatasmithContent/Content/Blueprints/FBXImporter/Animation/VREDAnimationTrackType.uasset" 393
"../../Plugins/Enterprise/DatasmithContent/Content/Blueprints/FBXImporter/Animation/VREDAnimCurveComponent.uasset" 394
"../../Plugins/Enterprise/DatasmithContent/Content/Blueprints/FBXImporter/Animation/VREDAnimCurveType.uasset" 395
"../../Plugins/Enterprise/DatasmithContent/Content/Blueprints/FBXImporter/Variants/VariantSwitchType.uasset" 396
"../../Plugins/Enterprise/DatasmithContent/Content/Blueprints/FBXImporter/Variants/VREDVariantSwitchType.uasset" 397
"../../Plugins/Enterprise/DatasmithContent/Content/Blueprints/FBXImporter/Variants/VREDVariantType.uasset" 398
"../../Plugins/Runtime/Oculus/OculusVR/Content/OculusMR_RenderTarget.uasset" 399
"../../../Engine/Content/Functions/Engine_MaterialFunctions02/Utility/BreakOutFloat4Components.uasset" 400
"../../Plugins/Runtime/Oculus/OculusVR/Content/Materials/OculusMR_ChromaKey.uasset" 401
"../../Plugins/Runtime/Oculus/OculusVR/Content/Materials/OculusMR_ChromaKey_Lit.uasset" 402
"../../Plugins/Runtime/Oculus/OculusVR/Content/Materials/OculusMR_OpaqueColoredMaterial.uasset" 403
"../../Plugins/Runtime/Oculus/OculusVR/Content/Materials/OculusMR_WhiteMaterial.uasset" 404
"../../Plugins/Runtime/Oculus/OculusVR/Content/Materials/PokeAHoleMaterial.uasset" 405
"../../Plugins/Runtime/Oculus/OculusVR/Content/Textures/GearVRController_AO.uasset" 406
"../../Plugins/Runtime/Oculus/OculusVR/Content/Textures/GearVRController_Color.uasset" 407
"../../Plugins/Runtime/Oculus/OculusVR/Content/Textures/GearVRController_Normal.uasset" 408
"../../Plugins/Runtime/Oculus/OculusVR/Content/Materials/GearVRControllerMaterial.uasset" 409
"../../Plugins/Runtime/Oculus/OculusVR/Content/Meshes/GearVrController.uasset" 410
"../../Plugins/Runtime/Oculus/OculusVR/Content/Textures/touchController_albedo.uasset" 411
"../../Plugins/Runtime/Oculus/OculusVR/Content/Textures/touchController_controlmap.uasset" 412
"../../Plugins/Runtime/Oculus/OculusVR/Content/Materials/touchController_mat.uasset" 413
"../../Plugins/Runtime/Oculus/OculusVR/Content/Meshes/LeftTouchController.uasset" 414
"../../Plugins/Runtime/Oculus/OculusVR/Content/Meshes/RiftHMD.uasset" 415
"../../Plugins/Runtime/Oculus/OculusVR/Content/Meshes/RightTouchController.uasset" 416
"../../../../../../Users/12083/Documents/Unreal Projects/midterm/Content/ModularRPGHeroesPolyart/Animations/SwordAndShieldStance/JumpAir_SwordShieldAnim.uasset" 417
"../../../../../../Users/12083/Documents/Unreal Projects/midterm/Content/ModularRPGHeroesPolyart/Animations/SwordAndShieldStance/JumpEnd_SwordShieldAnim.uasset" 418
"../../../../../../Users/12083/Documents/Unreal Projects/midterm/Content/ModularRPGHeroesPolyart/Animations/SwordAndShieldStance/JumpStart_SwordShieldAnim.uasset" 419
"../../../../../../Users/12083/Documents/Unreal Projects/midterm/Content/ModularRPGHeroesPolyart/Animations/SwordAndShieldStance/Idle_SwordShieldAnim.uasset" 420
"../../../../../../Users/12083/Documents/Unreal Projects/midterm/Content/ModularRPGHeroesPolyart/Animations/SwordAndShieldStance/Run_SwordShieldAnim.uasset" 421
"../../../../../../Users/12083/Documents/Unreal Projects/midterm/Content/ModularRPGHeroesPolyart/Animations/SwordAndShieldStance/Sprint_SwordShieldAnim.uasset" 422
"../../../../../../Users/12083/Documents/Unreal Projects/midterm/Content/ModularRPGHeroesPolyart/Animations/SwordAndShieldStance/Walk_SwordShieldAnim.uasset" 423
"../../../../../../Users/12083/Documents/Unreal Projects/midterm/Content/ModularRPGHeroesPolyart/Animations/SwordAndShieldStance/WalkBack_SwordShieldAnim.uasset" 424
"../../../../../../Users/12083/Documents/Unreal Projects/midterm/Content/ModularRPGHeroesPolyart/Animations/SwordAndShieldStance/WalkLeft_SwordShieldAnim.uasset" 425
"../../../../../../Users/12083/Documents/Unreal Projects/midterm/Content/ModularRPGHeroesPolyart/Animations/SwordAndShieldStance/WalkRight_SwordShieldAnim.uasset" 426
"../../../../../../Users/12083/Documents/Unreal Projects/midterm/Content/ModularRPGHeroesPolyart/Animations/SwordAndShieldStance/strafe_BS.uasset" 427
"../../../../../../Users/12083/Documents/Unreal Projects/midterm/Content/ModularRPGHeroesPolyart/Animations/SwordAndShieldStance/Combo01_SwordShieldAnim.uasset" 428
"../../../../../../Users/12083/Documents/Unreal Projects/midterm/Content/ModularRPGHeroesPolyart/Animations/SwordAndShieldStance/Combo01_M.uasset" 429
"../../../../../../Users/12083/Documents/Unreal Projects/midterm/Content/ModularRPGHeroesPolyart/Animations/SwordAndShieldStance/Combo02_SwordShieldAnim.uasset" 430
"../../../../../../Users/12083/Documents/Unreal Projects/midterm/Content/ModularRPGHeroesPolyart/Animations/SwordAndShieldStance/Combo02_M.uasset" 431
"../../../../../../Users/12083/Documents/Unreal Projects/midterm/Content/ModularRPGHeroesPolyart/Animations/SwordAndShieldStance/Combo03_SwordShieldAnim.uasset" 432
"../../../../../../Users/12083/Documents/Unreal Projects/midterm/Content/ModularRPGHeroesPolyart/Animations/SwordAndShieldStance/Combo03_M.uasset" 433
"../../../../../../Users/12083/Documents/Unreal Projects/midterm/Content/ModularRPGHeroesPolyart/Animations/SwordAndShieldStance/Combo05_SwordShieldAnim.uasset" 434
"../../../../../../Users/12083/Documents/Unreal Projects/midterm/Content/ModularRPGHeroesPolyart/Animations/SwordAndShieldStance/Combo05Clipped_M.uasset" 435
"../../../../../../Users/12083/Documents/Unreal Projects/midterm/Content/ModularRPGHeroesPolyart/Animations/SwordAndShieldStance/Roll_SwordShieldAnim.uasset" 436
"../../../../../../Users/12083/Documents/Unreal Projects/midterm/Content/ModularRPGHeroesPolyart/Animations/SwordAndShieldStance/Roll_M.uasset" 437
"../../../../../../Users/12083/Documents/Unreal Projects/midterm/Content/ModularRPGHeroesPolyart/Animations/SwordAndShieldStance/RollBack_SwordShield.uasset" 438
"../../../../../../Users/12083/Documents/Unreal Projects/midterm/Content/ModularRPGHeroesPolyart/Animations/SwordAndShieldStance/RollBack_M.uasset" 439
"../../../../../../Users/12083/Documents/Unreal Projects/midterm/Content/ModularRPGHeroesPolyart/Animations/SwordAndShieldStance/RollLeft_SwordShield.uasset" 440
"../../../../../../Users/12083/Documents/Unreal Projects/midterm/Content/ModularRPGHeroesPolyart/Animations/SwordAndShieldStance/RollLeft_M.uasset" 441
"../../../../../../Users/12083/Documents/Unreal Projects/midterm/Content/ModularRPGHeroesPolyart/Animations/SwordAndShieldStance/RollRight_SwordShield.uasset" 442
"../../../../../../Users/12083/Documents/Unreal Projects/midterm/Content/ModularRPGHeroesPolyart/Animations/SwordAndShieldStance/RollRight_M.uasset" 443
"../../../../../../Users/12083/Documents/Unreal Projects/midterm/Content/ModularRPGHeroesPolyart/Meshes/ModularBodyParts/Cloth01SK.uasset" 444
"../../../../../../Users/12083/Documents/Unreal Projects/midterm/Content/ModularRPGHeroesPolyart/Meshes/ModularBodyParts/Face01SK.uasset" 445
"../../../../../../Users/12083/Documents/Unreal Projects/midterm/Content/ModularRPGHeroesPolyart/Meshes/ModularBodyParts/Glove01SK.uasset" 446
"../../../../../../Users/12083/Documents/Unreal Projects/midterm/Content/ModularRPGHeroesPolyart/Meshes/ModularBodyParts/Hair01HalfSK.uasset" 447
"../../../../../../Users/12083/Documents/Unreal Projects/midterm/Content/ModularRPGHeroesPolyart/Meshes/ModularBodyParts/Hair01SK.uasset" 448
"../../../../../../Users/12083/Documents/Unreal Projects/midterm/Content/ModularRPGHeroesPolyart/Meshes/ModularBodyParts/Shoe01SK.uasset" 449
"../../../../../../Users/12083/Documents/Unreal Projects/midterm/Content/ModularRPGHeroesPolyart/Meshes/Weapons/Sword01SM.uasset" 450
"../../../../../../Users/12083/Documents/Unreal Projects/midterm/Content/ThirdPersonBP/Blueprints/HealthBar_W.uasset" 451
"../../../../../../Users/12083/Documents/Unreal Projects/midterm/Content/ThirdPersonBP/Blueprints/ThirdPersonDefault1.uasset" 452
"../../../../../../Users/12083/Documents/Unreal Projects/midterm/Content/ModularRPGHeroesPolyart/Animations/SwordAndShieldStance/SS_Anim_BP.uasset" 453
"../../../../../../Users/12083/Documents/Unreal Projects/midterm/Content/ThirdPersonBP/Blueprints/EnemyIronMaskSK_Blueprint.uasset" 454
"../../../Engine/Content/Maps/Entry_BuiltData.uasset" 455
"../../../Engine/Content/Maps/Entry.umap" 456
"../../../Engine/Content/EngineSky/C_Sky_Cloud_Color.uasset" 457
"../../../Engine/Content/EngineSky/C_Sky_Horizon_Color.uasset" 458
"../../../Engine/Content/EngineSky/C_Sky_Zenith_Color.uasset" 459
"../../../Engine/Content/EngineSky/T_Sky_Blue.uasset" 460
"../../../Engine/Content/EngineSky/T_Sky_Clouds_M.uasset" 461
"../../../Engine/Content/EngineSky/T_Sky_Stars.uasset" 462
"../../../Engine/Content/EngineSky/M_Sky_Panning_Clouds2.uasset" 463
"../../../Engine/Content/EngineSky/SM_SkySphere.uasset" 464
"../../../Engine/Content/EngineSky/BP_Sky_Sphere.uasset" 465
"../../../../../../Users/12083/Documents/Unreal Projects/midterm/Content/ThirdPersonBP/Blueprints/StartMenu_BP.uasset" 466
"../../../../../../Users/12083/Documents/Unreal Projects/midterm/Content/ThirdPersonBP/Blueprints/MenuGameMode_BP.uasset" 467
"../../../../../../Users/12083/Documents/Unreal Projects/midterm/Content/ThirdPersonBP/Blueprints/Coin.uasset" 468
"../../../../../../Users/12083/Documents/Unreal Projects/midterm/Content/ThirdPersonBP/Blueprints/Pl_Coin_01_Blueprint.uasset" 469
"../../../../../../Users/12083/Documents/Unreal Projects/midterm/Content/Platformer/Textures/Pl_Cliff_d.uasset" 470
"../../../../../../Users/12083/Documents/Unreal Projects/midterm/Content/Platformer/Textures/Pl_Cliff_n.uasset" 471
"../../../../../../Users/12083/Documents/Unreal Projects/midterm/Content/Platformer/Textures/Pl_Cliff_r.uasset" 472
"../../../../../../Users/12083/Documents/Unreal Projects/midterm/Content/Platformer/Materials/M_Cliff.uasset" 473
"../../../../../../Users/12083/Documents/Unreal Projects/midterm/Content/Platformer/Textures/Pl_Grass_d.uasset" 474
"../../../../../../Users/12083/Documents/Unreal Projects/midterm/Content/Platformer/Textures/Pl_Grass_n.uasset" 475
"../../../../../../Users/12083/Documents/Unreal Projects/midterm/Content/Platformer/Textures/Pl_Grass_r.uasset" 476
"../../../../../../Users/12083/Documents/Unreal Projects/midterm/Content/Platformer/Textures/Pl_Patterns_m.uasset" 477
"../../../../../../Users/12083/Documents/Unreal Projects/midterm/Content/Platformer/Materials/M_Grass.uasset" 478
"../../../../../../Users/12083/Documents/Unreal Projects/midterm/Content/Platformer/Meshes/Pl_4m_Platform.uasset" 479
"../../../Engine/Content/Functions/Engine_MaterialFunctions01/Gradient/LinearGradient.uasset" 480
"../../../Engine/Content/Functions/Engine_MaterialFunctions01/ImageAdjustment/CheapContrast.uasset" 481
"../../../../../../Users/12083/Documents/Unreal Projects/midterm/Content/Platformer/Textures/Pl_Crate_d.uasset" 482
"../../../../../../Users/12083/Documents/Unreal Projects/midterm/Content/Platformer/Textures/Pl_Crate_n.uasset" 483
"../../../../../../Users/12083/Documents/Unreal Projects/midterm/Content/Platformer/Textures/Pl_Crate_r.uasset" 484
"../../../../../../Users/12083/Documents/Unreal Projects/midterm/Content/Platformer/Materials/M_Crate_Light_Parent.uasset" 485
"../../../../../../Users/12083/Documents/Unreal Projects/midterm/Content/Platformer/Meshes/Pl_Crate_02.uasset" 486
"../../../../../../Users/12083/Documents/Unreal Projects/midterm/Content/Platformer/Textures/pl_wood_d.uasset" 487
"../../../../../../Users/12083/Documents/Unreal Projects/midterm/Content/Platformer/Textures/pl_wood_n.uasset" 488
"../../../../../../Users/12083/Documents/Unreal Projects/midterm/Content/Platformer/Textures/pl_wood_r.uasset" 489
"../../../../../../Users/12083/Documents/Unreal Projects/midterm/Content/Platformer/Materials/M_Wood_Dark_Parent.uasset" 490
"../../../../../../Users/12083/Documents/Unreal Projects/midterm/Content/Platformer/Materials/M_Wood_Light_Instance.uasset" 491
"../../../../../../Users/12083/Documents/Unreal Projects/midterm/Content/Platformer/Materials/M_Wood_White_Instance.uasset" 492
"../../../../../../Users/12083/Documents/Unreal Projects/midterm/Content/Platformer/Meshes/Pl_Fence_2m_01.uasset" 493
"../../../../../../Users/12083/Documents/Unreal Projects/midterm/Content/Platformer/Meshes/Pl_Fence_2m_02.uasset" 494
"../../../Engine/Content/Functions/Engine_MaterialFunctions01/WorldPositionOffset/SimpleGrassWind.uasset" 495
"../../../../../../Users/12083/Documents/Unreal Projects/midterm/Content/Platformer/Textures/Pl_Plants_d.uasset" 496
"../../../../../../Users/12083/Documents/Unreal Projects/midterm/Content/Platformer/Textures/Pl_Plants_n.uasset" 497
"../../../../../../Users/12083/Documents/Unreal Projects/midterm/Content/Platformer/Textures/Pl_Plants_r.uasset" 498
"../../../../../../Users/12083/Documents/Unreal Projects/midterm/Content/Platformer/Materials/M_Plants.uasset" 499
"../../../../../../Users/12083/Documents/Unreal Projects/midterm/Content/Platformer/Meshes/Pl_flower_06.uasset" 500
"../../../../../../Users/12083/Documents/Unreal Projects/midterm/Content/Platformer/Meshes/Pl_plant_03.uasset" 501
"../../../../../../Users/12083/Documents/Unreal Projects/midterm/Content/Platformer/Textures/pl_tree_d.uasset" 502
"../../../../../../Users/12083/Documents/Unreal Projects/midterm/Content/Platformer/Textures/pl_tree_n.uasset" 503
"../../../../../../Users/12083/Documents/Unreal Projects/midterm/Content/Platformer/Textures/pl_tree_r.uasset" 504
"../../../../../../Users/12083/Documents/Unreal Projects/midterm/Content/Platformer/Materials/M_Tree.uasset" 505
"../../../../../../Users/12083/Documents/Unreal Projects/midterm/Content/Platformer/Meshes/Pl_Tree_03.uasset" 506
"../../../Engine/Content/Functions/Engine_MaterialFunctions03/ComplexMotion/Motion_4WayChaos.uasset" 507
"../../../Engine/Content/Engine_MI_Shaders/T_Base_Tile_Normal.uasset" 508
"../../../Engine/Content/Functions/Engine_MaterialFunctions03/ComplexMotion/Motion_4WayChaos_Normal.uasset" 509
"../../../Engine/Content/MapTemplates/Sky/DaylightAmbientCubemap.uasset" 510
"../../../../../../Users/12083/Documents/Unreal Projects/midterm/Content/Platformer/Ocean/Textures/T_LargeWaves_H.uasset" 511
"../../../../../../Users/12083/Documents/Unreal Projects/midterm/Content/Platformer/Ocean/Textures/T_LargeWaves_N.uasset" 512
"../../../../../../Users/12083/Documents/Unreal Projects/midterm/Content/Platformer/Ocean/Textures/T_Seafoam_01.uasset" 513
"../../../../../../Users/12083/Documents/Unreal Projects/midterm/Content/Platformer/Ocean/Textures/T_SmallWaves_N.uasset" 514
"../../../../../../Users/12083/Documents/Unreal Projects/midterm/Content/Platformer/Ocean/Materials/M_OceanWater_1.uasset" 515
"../../../Engine/Content/MapTemplates/Sky/Desert_Outer_HDR.uasset" 516
"../../../../../../Users/12083/Documents/Unreal Projects/midterm/Content/Platformer/Ocean/Materials/M_OceanWater_1_Inst.uasset" 517
"../../../../../../Users/12083/Documents/Unreal Projects/midterm/Content/Platformer/Ocean/Meshes/SM_OceanWater.uasset" 518
"../../../../../../Users/12083/Documents/Unreal Projects/midterm/Content/ThirdPersonBP/Maps/Menu.umap" 519
"../../../../../../Users/12083/Documents/Unreal Projects/midterm/Content/ThirdPersonBP/Blueprints/TutorialEnemy_BP.uasset" 520
"../../../../../../Users/12083/Documents/Unreal Projects/midterm/Content/ModularRPGHeroesPolyart/Meshes/OneMeshCharacters/KnightSK.uasset" 521
"../../../../../../Users/12083/Documents/Unreal Projects/midterm/Content/ModularRPGHeroesPolyart/Meshes/Weapons/Backpack01SM.uasset" 522
"../../../../../../Users/12083/Documents/Unreal Projects/midterm/Content/ModularRPGHeroesPolyart/Meshes/Weapons/Shield04SM.uasset" 523
"../../../../../../Users/12083/Documents/Unreal Projects/midterm/Content/ModularRPGHeroesPolyart/Meshes/Weapons/Sword03SM.uasset" 524
"../../../../../../Users/12083/Documents/Unreal Projects/midterm/Content/ModularRPGHeroesPolyart/CharacterBP/OneMeshCharacterBP.uasset" 525
"../../../../../../Users/12083/Documents/Unreal Projects/midterm/Content/ThirdPersonBP/Blueprints/Chest/chesttop_001.uasset" 526
"../../../../../../Users/12083/Documents/Unreal Projects/midterm/Content/ThirdPersonBP/Blueprints/Chest/Material.uasset" 527
"../../../../../../Users/12083/Documents/Unreal Projects/midterm/Content/ThirdPersonBP/Blueprints/Chest/100grogs_leaf_deco.uasset" 528
"../../../../../../Users/12083/Documents/Unreal Projects/midterm/Content/ThirdPersonBP/Blueprints/Chest/Chestbot_001.uasset" 529
"../../../../../../Users/12083/Documents/Unreal Projects/midterm/Content/ThirdPersonBP/Blueprints/Chest/Material_005.uasset" 530
"../../../../../../Users/12083/Documents/Unreal Projects/midterm/Content/ThirdPersonBP/Blueprints/Chest/100grogs_Spout_Plate_001.uasset" 531
"../../../../../../Users/12083/Documents/Unreal Projects/midterm/Content/ThirdPersonBP/Blueprints/100grogs_Spout_Plate_001_Blueprint.uasset" 532
"../../../../../../Users/12083/Documents/Unreal Projects/midterm/Content/ThirdPersonBP/Blueprints/Dialog_BP.uasset" 533
"../../../../../../Users/12083/Documents/Unreal Projects/midterm/Content/ThirdPersonBP/Blueprints/EventTrigger_Blueprint.uasset" 534
"../../../../../../Users/12083/Documents/Unreal Projects/midterm/Content/ThirdPersonBP/Blueprints/EnemyHealth_W.uasset" 535
"../../../../../../Users/12083/Documents/Unreal Projects/midterm/Content/Platformer/Meshes/Pl_FencePost.uasset" 536
"../../../../../../Users/12083/Documents/Unreal Projects/midterm/Content/ThirdPersonBP/Blueprints/Pl_FencePost3_Blueprint.uasset" 537
"../../../../../../Users/12083/Documents/Unreal Projects/midterm/Content/ThirdPersonBP/Blueprints/SM_OceanWater_Blueprint.uasset" 538
"../../../../../../Users/12083/Documents/Unreal Projects/midterm/Content/ThirdPersonBP/Maps/ThirdPersonExampleMap_BuiltData.uasset" 539
"../../../../../../Users/12083/Documents/Unreal Projects/midterm/Content/Platformer/Textures/BeanStalks_Textures/Pl_StoneBlock_d.uasset" 540
"../../../../../../Users/12083/Documents/Unreal Projects/midterm/Content/Platformer/Textures/BeanStalks_Textures/Pl_StoneBlock_n.uasset" 541
"../../../../../../Users/12083/Documents/Unreal Projects/midterm/Content/Platformer/Textures/BeanStalks_Textures/Pl_StoneBlock_r.uasset" 542
"../../../../../../Users/12083/Documents/Unreal Projects/midterm/Content/Platformer/Materials/BeanStalks_Materials/M_StoneBlock.uasset" 543
"../../../../../../Users/12083/Documents/Unreal Projects/midterm/Content/Platformer/Meshes/Beanstalks/Pl_StoneBlock_01.uasset" 544
"../../../../../../Users/12083/Documents/Unreal Projects/midterm/Content/Platformer/Meshes/Beanstalks/Pl_StoneBlock_04.uasset" 545
"../../../../../../Users/12083/Documents/Unreal Projects/midterm/Content/Platformer/Meshes/Pl_16m_Platform.uasset" 546
"../../../../../../Users/12083/Documents/Unreal Projects/midterm/Content/Platformer/Materials/M_Cloud.uasset" 547
"../../../../../../Users/12083/Documents/Unreal Projects/midterm/Content/Platformer/Meshes/Pl_CloudPlat_4m.uasset" 548
"../../../../../../Users/12083/Documents/Unreal Projects/midterm/Content/Platformer/Meshes/Pl_Crate_01.uasset" 549
"../../../../../../Users/12083/Documents/Unreal Projects/midterm/Content/Platformer/Meshes/Pl_Crate_Shards_01.uasset" 550
"../../../../../../Users/12083/Documents/Unreal Projects/midterm/Content/Platformer/Meshes/Pl_Crate_Shards_02.uasset" 551
"../../../../../../Users/12083/Documents/Unreal Projects/midterm/Content/Platformer/Meshes/Pl_Crate_Shards_03.uasset" 552
"../../../../../../Users/12083/Documents/Unreal Projects/midterm/Content/Platformer/Meshes/Pl_Fence_8m_02.uasset" 553
"../../../../../../Users/12083/Documents/Unreal Projects/midterm/Content/Platformer/Meshes/Pl_Fern_01.uasset" 554
"../../../../../../Users/12083/Documents/Unreal Projects/midterm/Content/Platformer/Meshes/Pl_fern_02.uasset" 555
"../../../../../../Users/12083/Documents/Unreal Projects/midterm/Content/Platformer/Meshes/Pl_flower_01.uasset" 556
"../../../../../../Users/12083/Documents/Unreal Projects/midterm/Content/Platformer/Meshes/Pl_flower_04.uasset" 557
"../../../../../../Users/12083/Documents/Unreal Projects/midterm/Content/Platformer/Meshes/Pl_flower_05.uasset" 558
"../../../../../../Users/12083/Documents/Unreal Projects/midterm/Content/Platformer/Meshes/Pl_plant_01.uasset" 559
"../../../../../../Users/12083/Documents/Unreal Projects/midterm/Content/Platformer/Meshes/Pl_plant_02.uasset" 560
"../../../../../../Users/12083/Documents/Unreal Projects/midterm/Content/Platformer/Meshes/Pl_Tree_04.uasset" 561
"../../../../../../Users/12083/Documents/Unreal Projects/midterm/Content/Platformer/Materials/M_Wood_Yellow_Instance.uasset" 562
"../../../../../../Users/12083/Documents/Unreal Projects/midterm/Content/Platformer/Meshes/Pl_Woodcatwalk_4m_01.uasset" 563
"../../../../../../Users/12083/Documents/Unreal Projects/midterm/Content/Platformer/Meshes/Pl_Woodcatwalk_4m_02.uasset" 564
"../../../../../../Users/12083/Documents/Unreal Projects/midterm/Content/ThirdPersonBP/Maps/ThirdPersonExampleMap.umap" 565
